distance(mm) 	 DPK (Gy/Bq) 	 Uncertainty 
1e-12 	 4.272975939261872e+16 	 0
0.0005773502691896257 	 0.12818927817785628 	 7.170711659e-05
0.0010140689945937029 	 0.010635239675762957 	 0.0007948750944
0.0010425371804588727 	 0.010116583452618977 	 0.0007877343884
0.0010718045600778938 	 0.0096110365387748 	 0.0007835271935
0.0011018935693959027 	 0.008834125464847539 	 0.0007857546971
0.0011328272742073449 	 0.008376065706738762 	 0.0007807843153
0.0011646293878378765 	 0.00818203048749051 	 0.0007702026342
0.0011973242893226523 	 0.007517305016644189 	 0.0007714325847
0.0012309370420949398 	 0.007121159493883674 	 0.0007670187959
0.0012654934131993737 	 0.0067216485781348145 	 0.0007627385681
0.0013010198930446047 	 0.006349608802719421 	 0.0007583591712
0.001337543715710455 	 0.005992652708454436 	 0.0007554876937
0.0013750928798251624 	 0.005644975438507014 	 0.0007519782693
0.001413696170028723 	 0.0053232816082396835 	 0.0007483284541
0.0014533831790387748 	 0.005018841043175979 	 0.0007448643817
0.0014941843303359471 	 0.004840296572703082 	 0.0007386544826
0.001536130901486038 	 0.0044411660786265045 	 0.0007389179947
0.0015792550481169645 	 0.004271712061076373 	 0.000732821411
0.0016235898285687756 	 0.004008375322716219 	 0.0007304013858
0.0016691692292357028 	 0.003761061444026742 	 0.0007270440587
0.0017160281906196298 	 0.0035966110830841862 	 0.000721842223
0.001764202634114969 	 0.0033747597622958477 	 0.0007202357579
0.0018137294895454806 	 0.0031621183653429284 	 0.0007184485224
0.001864646723474132 	 0.0029619965013764943 	 0.0007160973173
0.001916993368307711 	 0.002824082158356191 	 0.0007099954555
0.0019708095522184975 	 0.002694514628567226 	 0.0007052074955
0.0020261365299059342 	 0.0025187318378567143 	 0.0007032546301
0.0020830167142218774 	 0.002391428002534149 	 0.000697178126
0.0021414937086836608 	 0.0022350944615734465 	 0.0006968266403
0.0022016123408999254 	 0.0021214631029420126 	 0.0006917383738
0.002263418696934807 	 0.002011056225712457 	 0.0006873789556
0.00232696015663682 	 0.0018737295798552393 	 0.0006856674308
0.002392285429959594 	 0.0017727490011187172 	 0.0006809351261
0.002459444594302164 	 0.0016799691998990835 	 0.0006772064616
0.002528489132897621 	 0.0015843489346697986 	 0.0006729319692
0.0025994719742793685 	 0.0014962693112725418 	 0.0006698165477
0.0026724475328553715 	 0.0014122199131300604 	 0.0006664229949
0.0027474717506214656 	 0.0013313486741837763 	 0.0006619116324
0.0028246021400456416 	 0.0012694167295316558 	 0.0006563611336
0.0029038978281562813 	 0.0011799461264016874 	 0.0006556872151
0.0029854196018680775 	 0.0011229294272149541 	 0.0006502677469
0.0030692299545803724 	 0.0010543258118866563 	 0.0006479263796
0.0031553931340837036 	 0.00099087510256439 	 0.0006453419583
0.003243975191811211 	 0.0009394971979512096 	 0.0006403563176
0.0033350440334727 	 0.0008820171269546654 	 0.0006387968335
0.0034286694711101726 	 0.0008360496341868512 	 0.0006350810431
0.0035249232766147004 	 0.0007911668768812034 	 0.0006309941484
0.0036238792367457337 	 0.0007402643508931039 	 0.0006289227061
0.003725613209694922 	 0.0007004092347426777 	 0.000625379979
0.0038302031832379148 	 0.0006610354527121589 	 0.0006225092177
0.003937729334518646 	 0.0006228651268860139 	 0.0006190170685
0.004048274091511952 	 0.000587863433737311 	 0.0006161048471
0.004161922196211658 	 0.0005538548954362873 	 0.0006129259761
0.004278760769592553 	 0.0005252462251640318 	 0.000609123085
0.004398879378396053 	 0.0004942425960997874 	 0.0006066671765
0.00452237010379074 	 0.000464520985006849 	 0.0006041400789
0.004649327611960473 	 0.00043959154600257884 	 0.000600698176
0.004779849226674057 	 0.00041277998763445127 	 0.0005981440502
0.004914035003892273 	 0.0003899709635652692 	 0.0005953629345
0.005051987808469244 	 0.00036833847344982184 	 0.0005920226379
0.0051938133930072026 	 0.0003472769538861134 	 0.0005890793518
0.005339620478924841 	 0.0003250501756295593 	 0.0005876536154
0.005489520839801566 	 0.00030823492538986066 	 0.0005842775237
0.00564362938706152 	 0.00029220659310894953 	 0.0005808517771
0.0058020642580629425 	 0.0002730066457076354 	 0.0005796967028
0.005964946906660607 	 0.00025771606753394036 	 0.0005767245602
0.006132402196310524 	 0.00024360099558253851 	 0.0005733669035
0.006304558495788431 	 0.0002302083130782788 	 0.0005710545694
0.006481547777595486 	 0.00021582094479418254 	 0.0005690578543
0.006663505719126365 	 0.00020457260384427103 	 0.0005664038716
0.006850571806677657 	 0.00019161109413629832 	 0.0005649262032
0.007042889442375928 	 0.00018114363401397759 	 0.000561654112
0.007240606054107791 	 0.00017114572039410417 	 0.0005590081617
0.0074438732085358745 	 0.00016063122159448975 	 0.0005560826893
0.007652846727287678 	 0.00015159098329060462 	 0.0005540301295
0.00786768680640614 	 0.00014235169397074478 	 0.0005526712698
0.008088558139153516 	 0.00013470757086339114 	 0.000550285538
0.008315630042262948 	 0.0001267499211384257 	 0.0005478525071
0.008549076585734052 	 0.00011963119657411783 	 0.000545311395
0.008789076726272582 	 0.0001124579854540254 	 0.0005431949467
0.009035814444475872 	 0.00010653908052939162 	 0.0005410630075
0.009289478885869812 	 9.985498013605409e-05 	 0.0005391576323
0.009550264505904934 	 9.40260296535038e-05 	 0.0005371827686
0.009818371219023172 	 8.882170143635145e-05 	 0.0005351934549
0.01009400455190933 	 8.348345895627346e-05 	 0.0005336077421
0.010377375801044848 	 7.891720192423172e-05 	 0.0005313611488
0.010668702194684588 	 7.410971034597536e-05 	 0.0005290871853
0.010968207059380812 	 6.99931289809164e-05 	 0.0005272827614
0.01127611999118209 	 6.57879234822662e-05 	 0.0005259607137
0.01159267703163824 	 6.198324801184517e-05 	 0.0005234308456
0.011918120848746343 	 5.842573698115422e-05 	 0.0005217002371
0.012252700922976497 	 5.497963969701331e-05 	 0.0005205425028
0.012596673738519875 	 5.184790426296379e-05 	 0.0005185178738
0.01295030297990573 	 4.86926521138434e-05 	 0.0005169832013
0.013313859734138138 	 4.598607220427085e-05 	 0.0005150512989
0.013687622698507342 	 4.3211315338016865e-05 	 0.0005134161397
0.014071878394234969 	 4.0609160671023886e-05 	 0.000511889727
0.014466921386117037 	 3.837023321026281e-05 	 0.0005101015653
0.014873054508333046 	 3.602142250425272e-05 	 0.0005092852656
0.015290589096594141 	 3.398822879645595e-05 	 0.000506824926
0.015719845226808603 	 3.191615809209136e-05 	 0.0005054488111
0.016161151960447356 	 3.0015449733776343e-05 	 0.0005039274286
0.016614847596797627 	 2.8297515967310957e-05 	 0.0005022780605
0.017081279932298236 	 2.66264032019545e-05 	 0.0005007846015
0.01756080652715532 	 2.5052432056824742e-05 	 0.000500132042
0.01805379497944266 	 2.3587993943066693e-05 	 0.0004984329493
0.018560623206897105 	 2.220664968078909e-05 	 0.0004969539789
0.019081679736624682 	 2.0875795742011393e-05 	 0.0004957335967
0.01961736400293982 	 1.964768418324115e-05 	 0.000494613765
0.020168086653565915 	 1.850146012394318e-05 	 0.0004931458622
0.02073426986443178 	 1.7383175333915643e-05 	 0.0004918821833
0.02131634766330551 	 1.63591094091888e-05 	 0.0004910116483
0.021914766262514047 	 1.5370708158756367e-05 	 0.0004899063087
0.022529984401002685 	 1.4491712231139653e-05 	 0.0004887910048
0.023162473695997936 	 1.3610379971392502e-05 	 0.0004877064434
0.023812719004542213 	 1.2819302116373845e-05 	 0.0004867498944
0.02448121879517823 	 1.2019011403914044e-05 	 0.0004856136459
0.025168485530067664 	 1.1321941656432167e-05 	 0.0004845234025
0.025875046057837144 	 1.0636984470741006e-05 	 0.000483479695
0.026601442017452716 	 1.0015372789149161e-05 	 0.0004827264204
0.027348230253432474 	 9.399446174696625e-06 	 0.0004814520404
0.02811598324271513 	 8.839695263324909e-06 	 0.0004813055963
0.02890528953351271 	 8.314654669314863e-06 	 0.0004805908585
0.029716754196482995 	 7.817492894065057e-06 	 0.0004798383792
0.03055099928856766 	 7.341029208059864e-06 	 0.0004791835691
0.03140866432985221 	 6.892822010592228e-06 	 0.0004780888997
0.03229040679381269 	 6.476253070153183e-06 	 0.000477088341
0.03319690261132504 	 6.08509791213077e-06 	 0.0004769902712
0.03412884668882424 	 5.7164982688316156e-06 	 0.0004760091661
0.03508695344100887 	 5.376345103497377e-06 	 0.0004756175851
0.03607195733850148 	 5.04515128584462e-06 	 0.0004752472109
0.037084613470882655 	 4.7431148491574595e-06 	 0.0004749717561
0.03812569812553186 	 4.450183154277725e-06 	 0.0004749488537
0.03919600938271788 	 4.176725086809144e-06 	 0.0004738220277
0.04029636772739567 	 3.924301997269143e-06 	 0.0004739736781
0.04142761667817765 	 3.6820433025548454e-06 	 0.0004734918787
0.042590623433963436 	 3.45585030002593e-06 	 0.000473066198
0.04378627953872121 	 3.2423368702724316e-06 	 0.0004726478546
0.04501550156493254 	 3.0436610634412958e-06 	 0.0004725814542
0.046279231816223544 	 2.857113932356746e-06 	 0.0004728831288
0.047578439049720894 	 2.6794778475280087e-06 	 0.0004722952518
0.04891411921868685 	 2.517407666288105e-06 	 0.0004725036479
0.050287296236002754 	 2.3595007868147624e-06 	 0.0004722345048
0.051699022759085 	 2.213614081700814e-06 	 0.0004723875658
0.05315038099683785 	 2.076911713677039e-06 	 0.0004724142554
0.054642483539257804 	 1.9495026046678718e-06 	 0.0004726380716
0.05617647421032976 	 1.8274642679877884e-06 	 0.0004728758683
0.05775352894486522 	 1.7143077581639344e-06 	 0.0004732636733
0.05937485668995676 	 1.6077742022958175e-06 	 0.0004735994911
0.061041700331739404 	 1.507393404670288e-06 	 0.0004735809611
0.06275533764816897 	 1.4119108034705671e-06 	 0.0004737858086
0.06451708228854756 	 1.325860440393616e-06 	 0.0004746596068
0.06632828478054832 	 1.24215461899316e-06 	 0.0004749084471
0.06819033356551002 	 1.1643559543646506e-06 	 0.0004752519262
0.07010465606279591 	 1.091694987454204e-06 	 0.0004756908097
0.07207271976403262 	 1.0232455206196795e-06 	 0.0004764037103
0.07409603335806751 	 9.59609154127722e-07 	 0.0004771803476
0.07617614788750784 	 9.000445167906225e-07 	 0.000478237429
0.07831465793772688 	 8.428943846680469e-07 	 0.0004790206761
0.08051320285925034 	 7.893470036886872e-07 	 0.0004799826755
0.08277346802445794 	 7.39661818693281e-07 	 0.0004812206422
0.08509718611956547 	 6.928799318123376e-07 	 0.0004820655296
0.08748613847287692 	 6.488935520746656e-07 	 0.000483078018
0.08994215642032394 	 6.081113295979816e-07 	 0.0004847602689
0.09246712270934251 	 5.695103515157645e-07 	 0.0004857793374
0.09506297294215788 	 5.33747169306364e-07 	 0.0004874856689
0.09773169705959064 	 4.998698225470734e-07 	 0.0004891042149
0.10047534086651475 	 4.681604611896764e-07 	 0.0004908614395
0.10329600760014293 	 4.384328434281267e-07 	 0.0004925345069
0.10619585954233653 	 4.1000468071873856e-07 	 0.0004945518508
0.10917711967717972 	 3.83974513883285e-07 	 0.0004965424746
0.11224207339508625 	 3.594147739715565e-07 	 0.0004986247599
0.11539307024474688 	 3.366236998763915e-07 	 0.0005011269329
0.11863252573425853 	 3.152006035452997e-07 	 0.000503826417
0.12196292318281714 	 2.9476265347160223e-07 	 0.000506076984
0.1253868156243951 	 2.757527672461263e-07 	 0.0005092243646
0.12890682776485812 	 2.5810615577942373e-07 	 0.0005122538544
0.13252565799402774 	 2.4119460346337745e-07 	 0.0005154389396
0.13624608045422681 	 2.253719817580938e-07 	 0.000519092723
0.14007094716689644 	 2.1035094972280562e-07 	 0.0005230862578
0.14400319021891395 	 1.9606434831436245e-07 	 0.0005270244724
0.14804582401028824 	 1.8264421851483438e-07 	 0.000531794269
0.152201947564954 	 1.7007018435223936e-07 	 0.0005370924305
0.1564747469064383 	 1.5782709341402112e-07 	 0.000542258792
0.1608674975002209 	 1.463088072888432e-07 	 0.0005485168299
0.16538356676465577 	 1.3525156867420466e-07 	 0.0005552343836
0.1700264166523866 	 1.2469273879913916e-07 	 0.0005628391912
0.1747996063042292 	 1.1471593003914342e-07 	 0.0005713872454
0.1797067947775549 	 1.0495668171157202e-07 	 0.000580905435
0.18475174385127258 	 9.556308429959802e-08 	 0.0005921747978
0.18993832090955198 	 8.652881728309665e-08 	 0.0006041669418
0.19527050190650452 	 7.794049596755151e-08 	 0.0006187757215
0.2007523744140914 	 6.967951644972922e-08 	 0.0006345263105
0.2063881407555956 	 6.18566524116938e-08 	 0.0006528439137
0.21218212122706373 	 5.456473140174181e-08 	 0.0006731342568
0.21813875740917898 	 4.7784899122417184e-08 	 0.0006960010283
0.22426261557211344 	 4.1580993418752464e-08 	 0.0007214623477
0.2305583901759648 	 3.601425394207279e-08 	 0.0007485997943
0.23703090746945854 	 3.1168873287758144e-08 	 0.000777432045
0.24368512918968196 	 2.6954047978205557e-08 	 0.0008071284139
0.2505261563656769 	 2.3387250986063575e-08 	 0.0008376241159
0.2575592332288169 	 2.0394931522946316e-08 	 0.0008683574787
0.26478975123295573 	 1.7866461617276257e-08 	 0.0008975916956
0.2722232531874372 	 1.5759054164793304e-08 	 0.0009269091281
0.27986543750613474 	 1.3967197249595316e-08 	 0.000956876388
0.2877221625757675 	 1.2337053780529861e-08 	 0.0009866804632
0.29579945124685747 	 1.0916633254582315e-08 	 0.001018954334
0.3041034954507576 	 9.638517412230312e-09 	 0.001053514081
0.3126406609462952 	 8.49377685832931e-09 	 0.001090822457
0.3214174921996703 	 7.433982398362829e-09 	 0.001130902334
0.330440717401347 	 6.502311506219912e-09 	 0.001173885955
0.3397172536237868 	 5.647406774172046e-09 	 0.001220370308
0.349254212123974 	 4.898163754394387e-09 	 0.00127412732
0.3590589037948031 	 4.225781831580544e-09 	 0.001330929216
0.36913884476949926 	 3.627476858510163e-09 	 0.001393548974
0.37950176218338094 	 3.1046598514899213e-09 	 0.001461540634
0.39015560009736255 	 2.637669745848135e-09 	 0.001537863126
0.4011085255877614 	 2.2329494756298137e-09 	 0.001623271065
0.41236893500705474 	 1.8768599895063293e-09 	 0.001718635606
0.42394546042040376 	 1.5636099906160108e-09 	 0.001825453905
0.43584697622286445 	 1.2969558028023962e-09 	 0.001943205995
0.44808260594237503 	 1.0640010849582386e-09 	 0.002079941468
0.4606617292337123 	 8.662367189668182e-10 	 0.002237272337
0.47359398906880396 	 6.985275173344454e-10 	 0.002412453674
0.4868892991288847 	 5.594559103868747e-10 	 0.00261359574
0.5005578514041831 	 4.420136590644848e-10 	 0.002848817221
0.5146101240069497 	 3.4503720656918694e-10 	 0.003117370716
0.5290568892038261 	 2.669675163694633e-10 	 0.003430158096
0.5439092216737064 	 2.0465119017566017e-10 	 0.003788527287
0.559178506997424 	 1.52628930690023e-10 	 0.004231915848
0.5748764503857717 	 1.1374669437504134e-10 	 0.004725606545
0.591015085652545 	 8.434022977866541e-11 	 0.005304471073
0.6076067844394867 	 6.117026286067136e-11 	 0.005993375602
0.6246642657002089 	 4.431586022800126e-11 	 0.006752398153
0.6422006054503538 	 3.176651402258013e-11 	 0.007598286236
0.6602292467914788 	 2.3140714929068115e-11 	 0.008510081584
0.6787640102163399 	 1.740162302068219e-11 	 0.009279094535
0.6978191042034785 	 1.3558191946004412e-11 	 0.009935552578
0.7174091361092363 	 1.0912865426594688e-11 	 0.01046932032
0.7375491233655387 	 9.415737209978656e-12 	 0.01071084292
0.7582545049920374 	 8.364003699802396e-12 	 0.01076196001
0.7795411534314415 	 7.413171974560202e-12 	 0.01091308003
0.8014253867170933 	 6.814531457621701e-12 	 0.01090744407
0.8239239809821393 	 6.506906054272149e-12 	 0.01074873515
0.8470541833198684 	 6.119539091248664e-12 	 0.01067883972
0.8708337250050783 	 5.838967192484313e-12 	 0.01058824724
0.8952808350866125 	 5.503027641315762e-12 	 0.01047862082
0.9204142543614822 	 5.135311422922513e-12 	 0.01041441279
0.9462532497412912 	 4.887289573031005e-12 	 0.01025460635
0.9728176290219623 	 4.677615934763153e-12 	 0.01009366307
1.0001277560681074 	 4.4414814001332506e-12 	 0.01002699428
1.028204566423668 	 4.236586724810218e-12 	 0.009872987893
1.057069583360798 	 3.9214492463053865e-12 	 0.00980490765
1.086744934379284 	 3.7112707645776e-12 	 0.009721048957
1.117253368169174 	 3.5333906805207393e-12 	 0.009592629187
1.1486182720495743 	 3.329775719173118e-12 	 0.009529331599
1.1808636898970437 	 3.1613785421175596e-12 	 0.009372600498
1.2140143405772645 	 2.9820122215292748e-12 	 0.009310423174
1.2480956368941707 	 2.7927868985354582e-12 	 0.009193790938
1.2831337050710274 	 2.672647264410846e-12 	 0.009056470466
1.3191554047784122 	 2.5449322500995903e-12 	 0.008965575679
1.3561883497244536 	 2.4649821228153347e-12 	 0.008783191747
1.3942609288230805 	 2.2948736580142504e-12 	 0.008714087975
1.433402327956559 	 2.1580369859487514e-12 	 0.008683220652
1.4736425523489678 	 2.054960911422929e-12 	 0.00853812482
1.5150124495677484 	 1.9394498880197026e-12 	 0.008469951185
1.5575437331710096 	 1.822964748972462e-12 	 0.008366509346
1.6012690070186832 	 1.746379186834122e-12 	 0.008219799408
1.646221790266144 	 1.618647817823369e-12 	 0.008224643722
1.6924365430595338 	 1.5365675134195186e-12 	 0.008101704521
1.7399486929523815 	 1.4634502185071507e-12 	 0.007979303572
1.7887946620638535 	 1.381718619022598e-12 	 0.007863457205
1.8390118949994292 	 1.3196905131083581e-12 	 0.007763811073
1.8906388875553715 	 1.238065417809439e-12 	 0.007682684241
1.9437152162290527 	 1.1730289947578355e-12 	 0.007623060313
1.9982815685577089 	 1.1248281057528179e-12 	 0.007462197293
2.054379774308921 	 1.042263264923782e-12 	 0.007441576243
2.1120528375466976 	 9.88033888399863e-13 	 0.007354900934
2.1713449695977594 	 9.606090319959214e-13 	 0.007177365405
2.232301622943301 	 8.902897125968101e-13 	 0.007147300593
2.294969526062192 	 8.416998506168686e-13 	 0.007042861246
2.3593967192523504 	 7.997950226576835e-13 	 0.006969588152
2.425632591457732 	 7.610212971830013e-13 	 0.006878912628
2.4937279181291654 	 7.042896098806762e-13 	 0.006841630003
2.5637349001480843 	 6.74776057683577e-13 	 0.006708036327
2.6357072038429417 	 6.37250711594106e-13 	 0.006615883273
2.7097000021290487 	 6.099165474898692e-13 	 0.006523787193
2.785770016803315 	 5.714228804762401e-13 	 0.006466366536
2.8639755620263445 	 5.455257517731929e-13 	 0.006375189368
2.9443765890252416 	 5.085271973315239e-13 	 0.00631453842
3.0270347320513045 	 4.821705043477856e-13 	 0.006233591748
3.112013355627984 	 4.654212497938264e-13 	 0.006106337746
3.199377603125169 	 4.3145392001655754e-13 	 0.006060945789
3.2891944466971625 	 4.101908249187543e-13 	 0.005991104036
3.381532738622526 	 3.878331164901319e-13 	 0.005896884241
3.4764632640852766 	 3.7000202787535463e-13 	 0.005838977438
3.574058795437724 	 3.500880474953398e-13 	 0.005749403424
3.674394147986719 	 3.2899735040475223e-13 	 0.005675095955
3.7775462373459723 	 3.1342084034686887e-13 	 0.005598529587
3.8835941383984296 	 2.9767151346812256e-13 	 0.005524990121
3.9926191459139235 	 2.846524315332041e-13 	 0.005438959236
4.1047048368685575 	 2.6637000990539893e-13 	 0.005382011465
4.2199371345136125 	 2.5312007429600263e-13 	 0.005308921147
4.338404374242988 	 2.4042058970922744e-13 	 0.005196058246
4.46019737130992 	 2.2732106157458981e-13 	 0.005137699217
4.585409490444539 	 2.1393260137700852e-13 	 0.005079936227
4.714136717425961 	 2.026548343258121e-13 	 0.005017627423
4.846477732663563 	 1.9216982400063637e-13 	 0.004939157938
4.98253398684393 	 1.8358411318309e-13 	 0.004871201749
5.12240977870149 	 1.7057953184773702e-13 	 0.004831030568
5.2662123349723915 	 1.6306128806391728e-13 	 0.004745122962
5.414051892592934 	 1.5480637545377006e-13 	 0.004690577748
5.566041783205616 	 1.4650905707732512e-13 	 0.004615215972
5.722298520037493 	 1.3966237415573035e-13 	 0.004540324519
5.882941887217534 	 1.316682433559392e-13 	 0.004484622537
6.048095031601366 	 1.2588854586891326e-13 	 0.004418299225
6.217884557173858 	 1.1729678997400816e-13 	 0.004389900665
6.392440622101875 	 1.1182873113972132e-13 	 0.004315679046
6.571897038511663 	 1.0653363391041196e-13 	 0.004243613495
6.756391375067193 	 1.0071074784884062e-13 	 0.00418298528
6.946065062428389 	 9.528116199754329e-14 	 0.004127441692
7.141063501669693 	 8.932729609478302e-14 	 0.004075022319
7.341536175742487 	 8.531629725918217e-14 	 0.004011548622
7.547636764066497 	 8.13519392692853e-14 	 0.003954711655
7.759523260338202 	 7.741175118626344e-14 	 0.003887693089
7.9773580936464885 	 7.288590427615831e-14 	 0.003832170524
8.201308252988389 	 6.91061500659829e-14 	 0.003775860684
8.431545415280453 	 6.533503918459057e-14 	 0.003724533876
8.668246076963726 	 6.268790443935396e-14 	 0.003653573817
8.911591689303355 	 5.881159115360451e-14 	 0.003615472387
9.161768797486436 	 5.5873814707926415e-14 	 0.003562665336
9.418969183624911 	 5.307830412594326e-14 	 0.003511277687
9.683390013772838 	 5.033872764921469e-14 	 0.003458402607
9.955233989071044 	 4.757699008359756e-14 	 0.003415509596
10.234709501134892 	 4.5536091045652685e-14 	 0.003358361784
10.52203079180411 	 4.276699224204542e-14 	 0.003313453067
10.81741811737769 	 4.0604008057321236e-14 	 0.003267907164
11.121097917458883 	 3.841088599997759e-14 	 0.003220840666
11.433302988540692 	 3.634387629925972e-14 	 0.003173531703
11.75427266246409 	 3.4687936740022187e-14 	 0.003115025624
12.084252989886457 	 3.271781505159557e-14 	 0.003074871381
12.423496928900335 	 3.1270200197352454e-14 	 0.003020824388
12.772264538947443 	 2.9631577736591703e-14 	 0.002975664147
13.130823180176334 	 2.778485687116241e-14 	 0.00294304384
13.499447718396926 	 2.6525323295550188e-14 	 0.00289275366
13.878420735788545 	 2.5107228742620303e-14 	 0.002849117209
14.26803274752328 	 2.407142142690305e-14 	 0.00279580643
14.668582424470593 	 2.2754949304865366e-14 	 0.002759621297
15.08037682215426 	 2.1524946597696156e-14 	 0.002718417999
15.503731616136381 	 2.039329089512646e-14 	 0.002682115182
15.93897134400983 	 1.9445282803531467e-14 	 0.002631996581
16.386429654183978 	 1.8380771564198532e-14 	 0.002594270501
16.84644956165462 	 1.7487202308467603e-14 	 0.002553120812
17.319383710954302 	 1.661232093247188e-14 	 0.002514226685
17.805594646484597 	 1.563572165050046e-14 	 0.002478225055
18.305455090437004 	 1.4905621886802672e-14 	 0.002438243585
18.819348228516695 	 1.424825826446463e-14 	 0.002396399634
19.347668003686838 	 1.3472268127890965e-14 	 0.002358892674
19.890819418159605 	 1.2803906419843911e-14 	 0.002323290261
20.449218843864948 	 1.2212651788291983e-14 	 0.002281959696
21.023294341635086 	 1.151855439762226e-14 	 0.00224844984
21.613485989349957 	 1.0986020738572524e-14 	 0.002212251724
22.220246219294282 	 1.041888143250299e-14 	 0.002179705781
22.844040164985454 	 9.863326913322714e-15 	 0.002141811414
23.48534601773837 	 9.362593756986443e-15 	 0.002109863237
24.14465539323964 	 8.956135336415636e-15 	 0.002070708503
24.82247370841315 	 8.477417993866483e-15 	 0.002041624926
25.51932056886523 	 8.053156401143328e-15 	 0.002009228115
26.235730167206594 	 7.654693469090222e-15 	 0.001974837092
26.972251692556757 	 7.273461943678443e-15 	 0.001944959092
27.729449751544305 	 6.941594039057014e-15 	 0.001909503473
28.507904801126156 	 6.563203735112211e-15 	 0.001880764439
29.308213593557195 	 6.233351182119467e-15 	 0.001847091676
30.130989633851904 	 5.917948953126188e-15 	 0.001818820607
30.97686365008853 	 5.6344417453085675e-15 	 0.001792301222
31.846484076915647 	 5.360955161782336e-15 	 0.001761670784
32.740517552633 	 5.073694922269297e-15 	 0.00173530157
33.65964943022642 	 4.828344484199801e-15 	 0.001706114547
34.604584302749615 	 4.580114131523378e-15 	 0.001678941715
35.57604654345476 	 4.36644839657701e-15 	 0.001650451667
36.57478086108646 	 4.154434954750238e-15 	 0.001622368695
37.60155287076458 	 3.942550261442566e-15 	 0.001596756563
38.65714968089366 	 3.7453582612664705e-15 	 0.001570639805
39.74238049654862 	 3.559375599810254e-15 	 0.001544139077
40.858077239799734 	 3.3757124062461436e-15 	 0.001523165805
42.00509518745133 	 3.213111223676861e-15 	 0.001497512509
43.18431362668548 	 3.0478924098833072e-15 	 0.001470568749
44.396636529109664 	 2.900545919917951e-15 	 0.001447631407
45.64299324372892 	 2.758486196190322e-15 	 0.001424708985
46.924339209370864 	 2.6183485793805145e-15 	 0.001400882666
48.241656687110904 	 2.482324973158512e-15 	 0.001379456513
49.59595551325992 	 2.361951644524019e-15 	 0.001355835806
50.98827387348936 	 2.2457801581886834e-15 	 0.001333554861
52.41967909868928 	 2.133123423702354e-15 	 0.00131175998
53.89126848316889 	 2.0287077685822716e-15 	 0.001290444487
55.40417012582611 	 1.9194387370530197e-15 	 0.001272371414
56.9595437949318 	 1.8277492134935284e-15 	 0.001252221349
58.55858181719094 	 1.7328298367927282e-15 	 0.001231909399
60.20250999176293 	 1.643852315165241e-15 	 0.001214351986
61.89258852994156 	 1.5561685756288086e-15 	 0.001194762655
63.63011302121428 	 1.481282022852062e-15 	 0.001175808069
65.41641542644214 	 1.4043740197425926e-15 	 0.001157426224
67.25286509892145 	 1.3314080304461908e-15 	 0.001140229145
69.14086983411042 	 1.2624697304045092e-15 	 0.001123836349
71.08187694882409 	 1.1971568288690536e-15 	 0.001106802063
73.07737439072652 	 1.1355292116272846e-15 	 0.001089637441
75.12889187896933 	 1.0743593937587383e-15 	 0.00107452501
77.23800207685247 	 1.0164651420516484e-15 	 0.001059002168
79.4063217974048 	 9.61189668729388e-16 	 0.001045551799
81.63551324280908 	 9.10288999565363e-16 	 0.001030465695
83.92728527862205 	 8.614985044411728e-16 	 0.00101578695
86.28339474376564 	 8.13738207737928e-16 	 0.001002080165
88.70564779729418 	 7.702603829132255e-16 	 0.0009885157282
91.19590130296969 	 7.272662270281884e-16 	 0.0009754104943
93.7560642527054 	 6.872101846998394e-16 	 0.0009633386127
96.38809922997258 	 6.483023441713139e-16 	 0.0009508364115
99.09402391428718 	 6.106430993213245e-16 	 0.0009396254016
101.87591262793416 	 5.755385012386163e-16 	 0.0009283337602
104.73589792611178 	 5.424239991376975e-16 	 0.0009172285648
107.67617223171817 	 5.101527133116331e-16 	 0.0009074299036
110.69898951602995 	 4.8027615751364955e-16 	 0.0008969393683
113.806667026564 	 4.514934202678836e-16 	 0.0008879722971
117.00158706344561 	 4.24110543479025e-16 	 0.0008786169563
120.2861988056442 	 3.9801429118308044e-16 	 0.0008706778634
123.6630201884788 	 3.7343139179072114e-16 	 0.0008624651621
127.13463983383092 	 3.5008613556599083e-16 	 0.0008544119505
130.70371903454247 	 3.2753024407825604e-16 	 0.0008473007547
134.37299379452577 	 3.064597315092105e-16 	 0.0008404035309
138.14527692614288 	 2.8616083065718434e-16 	 0.0008345743667
142.02346020646732 	 2.670269709062611e-16 	 0.0008290919233
146.01051659407753 	 2.49163103006383e-16 	 0.0008236459082
150.10950250808332 	 2.315411130503372e-16 	 0.0008187984799
154.3235601711326 	 2.159011883293342e-16 	 0.0008152791638
158.65592001819263 	 2.0025207007612685e-16 	 0.0008118288274
163.10990317295548 	 1.8544308036553618e-16 	 0.0008094763687
167.68892399376043 	 1.7214511373015844e-16 	 0.0008071608998
172.39649269099434 	 1.5910922902951815e-16 	 0.0008051985742
177.23621801796457 	 1.4700411440865625e-16 	 0.0008044955092
182.21181003731903 	 1.3584638405598826e-16 	 0.0008031657952
187.3270829651239 	 1.2500241852276316e-16 	 0.0008037972399
192.58595809478683 	 1.1498339573999549e-16 	 0.0008042640076
197.99246680306328 	 1.0549702348687257e-16 	 0.0008070634801
203.5507536404507 	 9.672855990103855e-17 	 0.0008090672917
209.26507950834056 	 8.826357129895401e-17 	 0.0008126841897
215.13982492536203 	 8.068642737792942e-17 	 0.0008166426589
221.17949338542482 	 7.34986041915433e-17 	 0.0008213918812
227.38871481003116 	 6.681696219207088e-17 	 0.0008282941724
233.77224909750595 	 6.067983449921521e-17 	 0.0008346466413
240.3349897718653 	 5.4860587816180805e-17 	 0.0008424163835
247.08196773411927 	 4.9545261636136636e-17 	 0.0008522743218
254.01835511888999 	 4.4602780850783977e-17 	 0.0008626493173
261.14946925929047 	 4.0087126070159745e-17 	 0.0008743312628
268.4807767631187 	 3.598017164896591e-17 	 0.0008873036242
276.0178977034742 	 3.2167751143929336e-17 	 0.000901125019
283.7666099270284 	 2.869354149238936e-17 	 0.000916799291
291.7328534832356 	 2.5469802259160445e-17 	 0.0009351514638
299.9227351778879 	 2.260293528528809e-17 	 0.0009536428887
308.3425332545019 	 1.9992032603781444e-17 	 0.0009748921758
316.9987022071316 	 1.7583874730681974e-17 	 0.0009986899006
325.89787772828583 	 1.5471223341550343e-17 	 0.001023540295
335.04688179575606 	 1.3517262199085588e-17 	 0.001051961293
344.452727902242 	 1.1811172124373817e-17 	 0.001082432875
354.1226264317937 	 1.0280414506651841e-17 	 0.001115779797
364.0639901871869 	 8.895966889002416e-18 	 0.0011520243
374.28444007247 	 7.664806655455135e-18 	 0.001192431679
384.7918109350349 	 6.592196641402736e-18 	 0.001235885045
395.59415757169785 	 5.6473401474053975e-18 	 0.001284039292
406.6997609033905 	 4.8147938894821894e-18 	 0.001335722834
418.11713432319067 	 4.091820408335832e-18 	 0.001393501165
429.8550302225659 	 3.4544680896873672e-18 	 0.001457732111
441.9224467008273 	 2.9106126832652132e-18 	 0.001526975112
454.32863446294294 	 2.4344228051738985e-18 	 0.001605407846
467.08310391099275 	 2.0247023964857583e-18 	 0.001690154135
480.1956324347016 	 1.6773427148065217e-18 	 0.001785524295
493.6762719066444 	 1.3827136553617568e-18 	 0.001891877198
507.5353563878667 	 1.1277531217250692e-18 	 0.002012838332
521.7835100498213 	 9.146678726225552e-19 	 0.002147260566
536.4316553187043 	 7.330466485183979e-19 	 0.002303109304
551.4910212484283 	 5.786377835894765e-19 	 0.002493799586
566.9731521286471 	 4.369560286371124e-19 	 0.002754218086
582.8899163344461 	 3.1527614496369125e-19 	 0.003109748816
599.2535154244576 	 2.2674041999273546e-19 	 0.003531920657
616.0764934944012 	 1.5972591852621623e-19 	 0.004033764621
633.3717467932041 	 1.1067894411361728e-19 	 0.004652039731
651.1525336090751 	 7.559734872356981e-20 	 0.005403138542
669.4324844331188 	 5.067745169558146e-20 	 0.006339599109
688.2256124082614 	 3.252620145451573e-20 	 0.007564679659
707.5463240715334 	 2.0851223926809964e-20 	 0.00910832505
727.4094303978983 	 1.2362750031473052e-20 	 0.01136840596
747.8301581541414 	 7.030987205236714e-21 	 0.01447209331
768.8241615714747 	 3.7329717989953824e-21 	 0.01921009631
790.4075343458476 	 1.75206873651015e-21 	 0.02635178451
812.5968219751394 	 8.713367383456489e-22 	 0.03707630689
835.4090344426987 	 3.593013111506997e-22 	 0.05524807071
858.8616592569362 	 1.417923798491767e-22 	 0.08492187115
882.9726748570033 	 5.024282287499994e-23 	 0.1342201369
907.7605643948015 	 1.0937177199429169e-23 	 0.2300629803
933.2443299038894 	 2.8466219777222715e-24 	 0.5064072534
959.4435068661668 	 2.8466219777222586e-25 	 1.0
986.378179187492 	 2.8466219777222586e-25 	 1.0
